Sample Assignment
…
Clean dataset

brfss_data = brfss_smart2010 %>% 
  janitor::clean_names() %>% 
  filter(topic == "Overall Health") %>% 
  mutate(response = factor(response, levels = str_c(c("Excellent" , "Very good", "Good", "Fair", "Poor"))))

Summarize distinct locations

brfss_data %>% 
  filter(year == 2002) %>% 
  group_by(locationabbr) %>%
  summarize(n_locations = n_distinct(locationdesc))

## # A tibble: 49 x 2
##    locationabbr n_locations
##    <chr>              <int>
##  1 AK                     1
##  2 AL                     1
##  3 AR                     1
##  4 AZ                     2
##  5 CA                     1
##  6 CO                     4
##  7 CT                     7
##  8 DC                     1
##  9 DE                     3
## 10 FL                     7
## # ... with 39 more rows
…
instacart_data = instacart %>% 
  janitor::clean_names() 

This instacart dataset has 15 variables and 1384617 observations. The variables are order_id, product_id, add_to_cart_order, reordered, user_id, eval_set, order_number, order_dow, order_hour_of_day, days_since_prior_order, product_name, aisle_id, department_id, aisle, and department. Out of all these variables, the key ones include order_id, product_id, reordered, order_dow, order_hour_of_day, days_since_prior_order, product_name, aisle, and department. These variables can give us a lot of information on popularity of different products, and customer behaviors (day and time or orderes, days in between orders).

Here is a demonstration of reading observation for customer with user_id 1: This customer’s order_id is 1187899, and they ordered 11 items in this order. The products they ordered are added to cart in this order: soda, organic string cheese, 0% greek strained yogurt, XL paper towel rolls, milk chocolate almonds, postachios, cinnamon toast crunch, aged white cheddar popcorn, organic whole milk, organic half & half, and zero calorie cola. Most of these items belong in the snacks and dairy eggs departments. This ordered was placed on a Thursday and 8 AM. It has been 14 days since their prior order.

Aisles and most items ordered

instacart_data %>% 
  group_by(aisle_id) %>% 
  summarize(n_most_ordered = n()) %>% 
  arrange(desc(n_most_ordered)) 

## # A tibble: 134 x 2
##    aisle_id n_most_ordered
##       <int>          <int>
##  1       83         150609
##  2       24         150473
##  3      123          78493
##  4      120          55240
##  5       21          41699
##  6      115          36617
##  7       84          32644
##  8      107          31269
##  9       91          26240
## 10      112          23635
## # ... with 124 more rows
…
This NY NOAA dataset has 9 variables and 2595176 observations. The original 7 variables are id, date, prcp, snow, snwd, tmax, and tmin. After separting date into year, month, and day, there are now an additional 2 variables to make a total of 9 variables in the cleaned dataset. The key variables are date, precipitation, snow, snow depth, maximum and minimum temperatures. These variables will be able to give us a lot of information on the weather pattern in New York, especially for precipitation and snow in the winters.

One problem with this dataset is that there are many missing values for snow, snwd, tmax and tmin. This is probably due to the fact that some stations only collect a subset of variables. The proportion of missing in precipitation column is 5.62%, snow is 14.7%, snow depth is 22.8%, tmax and tmin are both 43.7%. The extent in which data is missing is problematic for our analysis. It will be difficult to get accurate weather patterns across NY since we might be missing critical pieces of information from stations that may be situated in locations that are in particular warmer or colder than average.

noaa_data %>% 
  group_by(snow) %>% 
  summarize(n_snow = n()) %>% 
  arrange(desc(n_snow))

## # A tibble: 282 x 2
##     snow  n_snow
##    <int>   <int>
##  1     0 2008508
##  2    NA  381221
##  3    25   31022
##  4    13   23095
##  5    51   18274
##  6    76   10173
##  7     8    9962
##  8     5    9748
##  9    38    9197
## 10     3    8790
## # ... with 272 more rows
…
